[
  {
    "artist": "Cynic",
    "title": "Traced in Air"
  },
  {
    "artist": "Death",
    "title": "The Sound of Perseverance"
  },
  {
    "artist": "Dream Theater",
    "title": "Octavarium"
  },
  {
    "artist": "Have a Nice Life",
    "title": "Deathconsciousness"
  },
  {
    "artist": "Iced Earth",
    "title": "Burnt Offerings"
  },
  {
    "artist": "maudlin of the Well",
    "title": "Bath"
  },
  {
    "artist": "Opeth",
    "title": "Morningrise"
  },
  {
    "artist": "A Place To Bury Strangers",
    "title": "Exploding Head"
  },
  {
    "artist": "Boris",
    "title": "Pink"
  },
  {
    "artist": "Preoccupations",
    "title": "Viet Cong"
  },
  {
    "artist": "The Men",
    "title": "Leave Home"
  },
  {
    "artist": "Unwound",
    "title": "Unwound"
  },
  {
    "artist": "Alcest",
    "title": "Ecailles De Lune"
  },
  {
    "artist": "Deafheaven",
    "title": "Sunbather"
  },
  {
    "artist": "Harakiri for the Sky",
    "title": "Aokigahara"
  },
  {
    "artist": "Satyricon",
    "title": "Dark Medieval Times"
  },
  {
    "artist": "Summoning",
    "title": "Stronghold"
  },
  {
    "artist": "Bad Brains",
    "title": "Bad Brains"
  },
  {
    "artist": "Brand New",
    "title": "Science Fiction"
  },
  {
    "artist": "Cro-Mags",
    "title": "The Age of Quarrel"
  },
  {
    "artist": "Fugazi",
    "title": "Steady Diet of Nothing"
  },
  {
    "artist": "Gorilla Biscuits",
    "title": "Start Today"
  },
  {
    "artist": "Gouge Away",
    "title": "Burnt Sugar"
  },
  {
    "artist": "Joy Division",
    "title": "Unknown Pleasures"
  },
  {
    "artist": "Judge",
    "title": "Bringin' It Down"
  },
  {
    "artist": "meWithoutYou",
    "title": "Untitled"
  },
  {
    "artist": "Minor Threat",
    "title": "Out of Step"
  },
  {
    "artist": "Modern Life Is War",
    "title": "Witness"
  },
  {
    "artist": "Reatards",
    "title": "Grown Up, Fucked Up"
  },
  {
    "artist": "Shelter",
    "title": "Mantra"
  },
  {
    "artist": "Youth of Today",
    "title": "We're Not In This Alone"
  },
  {
    "artist": "Emma Ruth Rundle",
    "title": "Some Heavy Ocean"
  },
  {
    "artist": "Julien Baker",
    "title": "Sprained Ankle"
  },
  {
    "artist": "Soccer Mommy",
    "title": "Clean"
  },
  {
    "artist": "Waxahatchee",
    "title": "Cerulean Salt"
  },
  {
    "artist": "Gray Matter",
    "title": "Food for Thought"
  },
  {
    "artist": "Spanish Love Songs",
    "title": "Schmaltz"
  },
  {
    "artist": "The Faith",
    "title": "Subject to Change"
  },
  {
    "artist": "Together Pangea",
    "title": "Badillac"
  }
]
