{
    "games": [
        {
            "title": "Aion: The Tower of Eternity",
            "developer": "NCsoft",
            "publisher": "NCsoft",
            "genre": "MMORPG"
        },
        {
            "title": "Final Fantasy XIV",
            "developer": "Square Enix Business Division 5",
            "publisher": "Square Enix",
            "genre": "MMORPG"
        },
        {
            "title": "Guild Wars",
            "developer": "ArenaNet",
            "publisher": "NCsoft",
            "genre": "MMORPG"
        },
        {
            "title": "The Lord of the Rings Online: Shadows of Angmar",
            "developer": "Turbine",
            "publisher": "Codemasters",
            "genre": "MMORPG"
        },
        {
            "title": "Warhammer Online: Age of Reckoning",
            "developer": "Mythic Entertainment",
            "publisher": "Electronic Arts",
            "genre": "MMORPG"
        },
        {
            "title": "World of Warcraft",
            "developer": "Blizzard Entertainment",
            "publisher": "Blizzard Entertainment",
            "genre": "MMORPG"
        },
        {
            "title": "Baldurs Gate II: Shadows of Amn",
            "developer": "BioWare",
            "publisher": "Black Isle Studios",
            "genre": "RPG"
        },
        {
            "title": "Disco Elysium",
            "developer": "ZA/UM",
            "publisher": "ZA/UM",
            "genre": "RPG"
        },
        {
            "title": "Divinity: Original Sin 2",
            "developer": "Larian Studios",
            "publisher": "Larian Studios",
            "genre": "RPG"
        },
        {
            "title": "Dragon Age: Origins",
            "developer": "BioWare",
            "publisher": "Electronic Arts",
            "genre": "RPG"
        },
        {
            "title": "Final Fantasy IX",
            "developer": "Square",
            "publisher": "Square",
            "genre": "RPG"
        },
        {
            "title": "Mass Effect",
            "developer": "BioWare",
            "publisher": "Electronic Arts",
            "genre": "RPG"
        },
        {
            "title": "Pathfinder: Kingmaker",
            "developer": "Owlcat Games",
            "publisher": "Deep Silver",
            "genre": "RPG"
        },
        {
            "title": "Pillars of Eternity",
            "developer": "Obsidian Entertainment",
            "publisher": "Paradox Interactive",
            "genre": "RPG"
        },
        {
            "title": "Shadowrun: Dragonfall",
            "developer": "Harebrained Schemes",
            "publisher": "Harebrained Schemes",
            "genre": "RPG"
        },
        {
            "title": "Shadowrun: Hong Kong",
            "developer": "Harebrained Schemes",
            "publisher": "Harebrained Schemes",
            "genre": "RPG"
        },
        {
            "title": "Vampire: The Masquerade – Bloodlines",
            "developer": "Troika Games",
            "publisher": "Activision",
            "genre": "RPG"
        },
        {
            "title": "Devil May Cry",
            "developer": "Capcom",
            "publisher": "Capcom",
            "genre": "Action-Adventure"
        },
        {
            "title": "Sekiro: Shadows Die Twice",
            "developer": "FromSoftware",
            "publisher": "Activision",
            "genre": "Action-Adventure"
        },
        {
            "title": "Tenchu: Stealth Assassins",
            "developer": "Acquire",
            "publisher": "Activision",
            "genre": "Action-Adventure"
        },
        {
            "title": "Dark Souls",
            "developer": "FromSoftware",
            "publisher": "Namco Bandai Games",
            "genre": "ARPG"
        },
        {
            "title": "Demon's Souls",
            "developer": "FromSoftware",
            "publisher": "Namco Bandai Games",
            "genre": "ARPG"
        },
        {
            "title": "Deus Ex",
            "developer": "Ion Storm",
            "publisher": "Eidos Interactive",
            "genre": "ARPG"
        },
        {
            "title": "Fallout 3",
            "developer": "Bethesda Game Studios",
            "publisher": "Bethesda Softworks",
            "genre": "ARPG"
        },
        {
            "title": "Nier: Automata",
            "developer": "PlatinumGames",
            "publisher": "Square Enix",
            "genre": "ARPG"
        },
        {
            "title": "Secret of Mana",
            "developer": "Square",
            "publisher": "Square",
            "genre": "ARPG"
        },
        {
            "title": "The Elder Scrolls IV: Oblivion",
            "developer": "Bethesda Game Studios",
            "publisher": "Bethesda Softworks",
            "genre": "ARPG"
        },
        {
            "title": "The Witcher 2: Assassins of Kings",
            "developer": "CD Projekt Red",
            "publisher": "CD Projekt",
            "genre": "ARPG"
        }
    ]
}
